{
  "project_info": {
    "project_number": "332751299885",
    "firebase_url": "https://dusmin.firebaseio.com",
    "project_id": "dusmin",
    "storage_bucket": "dusmin.appspot.com"
  },
  "client": [
    {
      "client_info": {
        "mobilesdk_app_id": "1:332751299885:android:a0de197c5ae3dcb8eedfa4",
        "android_client_info": {
          "package_name": "com.dusmin"
        }
      },
      "oauth_client": [
        {
          "client_id": "332751299885-h8r5gpsnqn9ecp6sf7agd0jvs154nr4g.apps.googleusercontent.com",
          "client_type": 1,
          "android_info": {
            "package_name": "com.dusmin",
            "certificate_hash": "9e5e375287afe619d47802517e0a30104015713a"
          }
        },
        {
          "client_id": "332751299885-15h2m2g3ooefh1bf05sskt4n5l0agvhe.apps.googleusercontent.com",
          "client_type": 3
        }
      ],
      "api_key": [
        {
          "current_key": "AIzaSyAahTkuH378tcm-1PF3WuhGhq1L2wzfREc"
        }
      ],
      "services": {
        "appinvite_service": {
          "other_platform_oauth_client": [
            {
              "client_id": "332751299885-15h2m2g3ooefh1bf05sskt4n5l0agvhe.apps.googleusercontent.com",
              "client_type": 3
            }
          ]
        }
      }
    }
  ],
  "configuration_version": "1"
}